-------------------------------------------------------------------------------
Test set: Navigate to the https://www.flipkart.com/
-------------------------------------------------------------------------------
Tests run: 1, Failures: 0, Errors: 0, Skipped: 0, Time elapsed: 7.544 s - in Navigate to the https://www.flipkart.com/
